^D:\ПРАКТИКА\РАБОЧАЯ КОПИЯ\THE MUSICAL INSTRUMENT\THE MUSICAL INSTRUMENT\DEBUG\MAIN.OBJ
D:\Практика\Рабочая копия\THE MUSICAL INSTRUMENT\DEBUG\THE MUSICAL INSTRUMENT.ILK
D:\Практика\Рабочая копия\THE MUSICAL INSTRUMENT\DEBUG\THE MUSICAL INSTRUMENT.EXE
D:\ПРАКТИКА\РАБОЧАЯ КОПИЯ\THE MUSICAL INSTRUMENT\DEBUG\THE MUSICAL INSTRUMENT.PDB
